{
  "items": [
    {
      "id": "c9613c41-32f0-435e-aef2-b17ce758431b",
      "projectId": "6d5fff43-d691-445d-a41a-7d0c639080e6",
      "name": "TypeError",
      "message": "can't define property F: \"obj\" is not extensible",
      "stack": "can't define property \"x\": \"obj\" is not extensible\n    at eval (webpack-internal:///./pages/index.tsx:37:7)\n    at invokePassiveEffectCreate (webpack-internal:///./node_modules/react-dom/cjs/react-dom.development.js:23482:20)\n    at HTMLUnknownElement.callCallback (webpack-internal:///./node_modules/react-dom/cjs/react-dom.development.js:3945:14)\n    at HTMLUnknownElement.sentryWrapped (webpack-internal:///./node_modules/@sentry/browser/esm/helpers.js:81:23)\n    at Object.invokeGuardedCallbackDev (webpack-internal:///./node_modules/react-dom/cjs/react-dom.development.js:3994:16)\n    at invokeGuardedCallback (webpack-internal:///./node_modules/react-dom/cjs/react-dom.development.js:4056:31)\n    at flushPassiveEffectsImpl (webpack-internal:///./node_modules/react-dom/cjs/react-dom.development.js:23569:9)\n    at unstable_runWithPriority (webpack-internal:///./node_modules/scheduler/cjs/scheduler.development.js:468:12)\n    at runWithPriority$1 (webpack-internal:///./node_modules/react-dom/cjs/react-dom.development.js:11276:10)\n    at flushPassiveEffects (webpack-internal:///./node_modules/react-dom/cjs/react-dom.development.js:23442:14)\n    at eval (webpack-internal:///./node_modules/react-dom/cjs/react-dom.development.js:23319:11)\n    at workLoop (webpack-internal:///./node_modules/scheduler/cjs/scheduler.development.js:417:34)\n    at flushWork (webpack-internal:///./node_modules/scheduler/cjs/scheduler.development.js:390:14)\n    at MessagePort.performWorkUntilDeadline (webpack-internal:///./node_modules/scheduler/cjs/scheduler.development.js:157:27)",
      "level": "error",
      "numEvents": 105,
      "numUsers": 56
    },
    {
      "id": "13263643-0bbc-4dcd-b737-1ea59e082a25",
      "projectId": "6d5fff43-d691-445d-a41a-7d0c639080e6",
      "name": "ReferenceError",
      "message": "can't access lexical declaration`X' before initialization",
      "stack": "can't access lexical declaration`X' before initialization\n    at eval (webpack-internal:///./pages/index.tsx:37:7)\n    at invokePassiveEffectCreate (webpack-internal:///./node_modules/react-dom/cjs/react-dom.development.js:23482:20)\n    at HTMLUnknownElement.callCallback (webpack-internal:///./node_modules/react-dom/cjs/react-dom.development.js:3945:14)\n    at HTMLUnknownElement.sentryWrapped (webpack-internal:///./node_modules/@sentry/browser/esm/helpers.js:81:23)\n    at Object.invokeGuardedCallbackDev (webpack-internal:///./node_modules/react-dom/cjs/react-dom.development.js:3994:16)\n    at invokeGuardedCallback (webpack-internal:///./node_modules/react-dom/cjs/react-dom.development.js:4056:31)\n    at flushPassiveEffectsImpl (webpack-internal:///./node_modules/react-dom/cjs/react-dom.development.js:23569:9)\n    at unstable_runWithPriority (webpack-internal:///./node_modules/scheduler/cjs/scheduler.development.js:468:12)\n    at runWithPriority$1 (webpack-internal:///./node_modules/react-dom/cjs/react-dom.development.js:11276:10)\n    at flushPassiveEffects (webpack-internal:///./node_modules/react-dom/cjs/react-dom.development.js:23442:14)\n    at eval (webpack-internal:///./node_modules/react-dom/cjs/react-dom.development.js:23319:11)\n    at workLoop (webpack-internal:///./node_modules/scheduler/cjs/scheduler.development.js:417:34)\n    at flushWork (webpack-internal:///./node_modules/scheduler/cjs/scheduler.development.js:390:14)\n    at MessagePort.performWorkUntilDeadline (webpack-internal:///./node_modules/scheduler/cjs/scheduler.development.js:157:27)",
      "level": "error",
      "numEvents": 9,
      "numUsers": 9
    },
    {
      "id": "d4febf2b-022e-45ff-a70b-cea24234f8b5",
      "projectId": "6d5fff43-d691-445d-a41a-7d0c639080e6",
      "name": "TypeError",
      "message": "'undefined' is not an object (evaluating O.length)",
      "stack": "'undefined' is not an object (evaluating \"x\".length)\n    at eval (webpack-internal:///./pages/index.tsx:37:7)\n    at invokePassiveEffectCreate (webpack-internal:///./node_modules/react-dom/cjs/react-dom.development.js:23482:20)\n    at HTMLUnknownElement.callCallback (webpack-internal:///./node_modules/react-dom/cjs/react-dom.development.js:3945:14)\n    at HTMLUnknownElement.sentryWrapped (webpack-internal:///./node_modules/@sentry/browser/esm/helpers.js:81:23)\n    at Object.invokeGuardedCallbackDev (webpack-internal:///./node_modules/react-dom/cjs/react-dom.development.js:3994:16)\n    at invokeGuardedCallback (webpack-internal:///./node_modules/react-dom/cjs/react-dom.development.js:4056:31)\n    at flushPassiveEffectsImpl (webpack-internal:///./node_modules/react-dom/cjs/react-dom.development.js:23569:9)\n    at unstable_runWithPriority (webpack-internal:///./node_modules/scheduler/cjs/scheduler.development.js:468:12)\n    at runWithPriority$1 (webpack-internal:///./node_modules/react-dom/cjs/react-dom.development.js:11276:10)\n    at flushPassiveEffects (webpack-internal:///./node_modules/react-dom/cjs/react-dom.development.js:23442:14)\n    at eval (webpack-internal:///./node_modules/react-dom/cjs/react-dom.development.js:23319:11)\n    at workLoop (webpack-internal:///./node_modules/scheduler/cjs/scheduler.development.js:417:34)\n    at flushWork (webpack-internal:///./node_modules/scheduler/cjs/scheduler.development.js:390:14)\n    at MessagePort.performWorkUntilDeadline (webpack-internal:///./node_modules/scheduler/cjs/scheduler.development.js:157:27)",
      "level": "error",
      "numEvents": 31,
      "numUsers": 21
    },
    {
      "id": "01f6f953-70ad-46cf-b863-c7bfd95e5626",
      "projectId": "6d5fff43-d691-445d-a41a-7d0c639080e6",
      "name": "SyntaxError",
      "message": "missing name after . operator",
      "stack": "missing name after . operator\n    at eval (webpack-internal:///./pages/index.tsx:37:7)\n    at invokePassiveEffectCreate (webpack-internal:///./node_modules/react-dom/cjs/react-dom.development.js:23482:20)\n    at HTMLUnknownElement.callCallback (webpack-internal:///./node_modules/react-dom/cjs/react-dom.development.js:3945:14)\n    at HTMLUnknownElement.sentryWrapped (webpack-internal:///./node_modules/@sentry/browser/esm/helpers.js:81:23)\n    at Object.invokeGuardedCallbackDev (webpack-internal:///./node_modules/react-dom/cjs/react-dom.development.js:3994:16)\n    at invokeGuardedCallback (webpack-internal:///./node_modules/react-dom/cjs/react-dom.development.js:4056:31)\n    at flushPassiveEffectsImpl (webpack-internal:///./node_modules/react-dom/cjs/react-dom.development.js:23569:9)\n    at unstable_runWithPriority (webpack-internal:///./node_modules/scheduler/cjs/scheduler.development.js:468:12)\n    at runWithPriority$1 (webpack-internal:///./node_modules/react-dom/cjs/react-dom.development.js:11276:10)\n    at flushPassiveEffects (webpack-internal:///./node_modules/react-dom/cjs/react-dom.development.js:23442:14)\n    at eval (webpack-internal:///./node_modules/react-dom/cjs/react-dom.development.js:23319:11)\n    at workLoop (webpack-internal:///./node_modules/scheduler/cjs/scheduler.development.js:417:34)\n    at flushWork (webpack-internal:///./node_modules/scheduler/cjs/scheduler.development.js:390:14)\n    at MessagePort.performWorkUntilDeadline (webpack-internal:///./node_modules/scheduler/cjs/scheduler.development.js:157:27)",
      "level": "error",
      "numEvents": 15,
      "numUsers": 13
    },
    {
      "id": "e06fac1f-7787-4088-b617-60a33e412694",
      "projectId": "6d5fff43-d691-445d-a41a-7d0c639080e6",
      "name": "SyntaxError",
      "message": "test for equality (==) mistyped as assignment (=)?",
      "stack": "test for equality (==) mistyped as assignment (=)?\n    at eval (webpack-internal:///./pages/index.tsx:37:7)\n    at invokePassiveEffectCreate (webpack-internal:///./node_modules/react-dom/cjs/react-dom.development.js:23482:20)\n    at HTMLUnknownElement.callCallback (webpack-internal:///./node_modules/react-dom/cjs/react-dom.development.js:3945:14)\n    at HTMLUnknownElement.sentryWrapped (webpack-internal:///./node_modules/@sentry/browser/esm/helpers.js:81:23)\n    at Object.invokeGuardedCallbackDev (webpack-internal:///./node_modules/react-dom/cjs/react-dom.development.js:3994:16)\n    at invokeGuardedCallback (webpack-internal:///./node_modules/react-dom/cjs/react-dom.development.js:4056:31)\n    at flushPassiveEffectsImpl (webpack-internal:///./node_modules/react-dom/cjs/react-dom.development.js:23569:9)\n    at unstable_runWithPriority (webpack-internal:///./node_modules/scheduler/cjs/scheduler.development.js:468:12)\n    at runWithPriority$1 (webpack-internal:///./node_modules/react-dom/cjs/react-dom.development.js:11276:10)\n    at flushPassiveEffects (webpack-internal:///./node_modules/react-dom/cjs/react-dom.development.js:23442:14)\n    at eval (webpack-internal:///./node_modules/react-dom/cjs/react-dom.development.js:23319:11)\n    at workLoop (webpack-internal:///./node_modules/scheduler/cjs/scheduler.development.js:417:34)\n    at flushWork (webpack-internal:///./node_modules/scheduler/cjs/scheduler.development.js:390:14)\n    at MessagePort.performWorkUntilDeadline (webpack-internal:///./node_modules/scheduler/cjs/scheduler.development.js:157:27)",
      "level": "error",
      "numEvents": 9,
      "numUsers": 8
    },
    {
      "id": "901aa791-4dff-442e-b0d7-3553a6590980",
      "projectId": "340cb147-6397-4a12-aa77-41100acf085f",
      "name": "TypeError",
      "message": "can't define property C: \"obj\" is not extensible",
      "stack": "can't define property \"x\": \"obj\" is not extensible\n    at eval (webpack-internal:///./pages/index.tsx:37:7)\n    at invokePassiveEffectCreate (webpack-internal:///./node_modules/react-dom/cjs/react-dom.development.js:23482:20)\n    at HTMLUnknownElement.callCallback (webpack-internal:///./node_modules/react-dom/cjs/react-dom.development.js:3945:14)\n    at HTMLUnknownElement.sentryWrapped (webpack-internal:///./node_modules/@sentry/browser/esm/helpers.js:81:23)\n    at Object.invokeGuardedCallbackDev (webpack-internal:///./node_modules/react-dom/cjs/react-dom.development.js:3994:16)\n    at invokeGuardedCallback (webpack-internal:///./node_modules/react-dom/cjs/react-dom.development.js:4056:31)\n    at flushPassiveEffectsImpl (webpack-internal:///./node_modules/react-dom/cjs/react-dom.development.js:23569:9)\n    at unstable_runWithPriority (webpack-internal:///./node_modules/scheduler/cjs/scheduler.development.js:468:12)\n    at runWithPriority$1 (webpack-internal:///./node_modules/react-dom/cjs/react-dom.development.js:11276:10)\n    at flushPassiveEffects (webpack-internal:///./node_modules/react-dom/cjs/react-dom.development.js:23442:14)\n    at eval (webpack-internal:///./node_modules/react-dom/cjs/react-dom.development.js:23319:11)\n    at workLoop (webpack-internal:///./node_modules/scheduler/cjs/scheduler.development.js:417:34)\n    at flushWork (webpack-internal:///./node_modules/scheduler/cjs/scheduler.development.js:390:14)\n    at MessagePort.performWorkUntilDeadline (webpack-internal:///./node_modules/scheduler/cjs/scheduler.development.js:157:27)",
      "level": "error",
      "numEvents": 8,
      "numUsers": 7
    },
    {
      "id": "3ea273e6-b07d-4bbc-80dc-19191b956c85",
      "projectId": "340cb147-6397-4a12-aa77-41100acf085f",
      "name": "SyntaxError",
      "message": "return not in function",
      "stack": "return not in function\n    at eval (webpack-internal:///./pages/index.tsx:37:7)\n    at invokePassiveEffectCreate (webpack-internal:///./node_modules/react-dom/cjs/react-dom.development.js:23482:20)\n    at HTMLUnknownElement.callCallback (webpack-internal:///./node_modules/react-dom/cjs/react-dom.development.js:3945:14)\n    at HTMLUnknownElement.sentryWrapped (webpack-internal:///./node_modules/@sentry/browser/esm/helpers.js:81:23)\n    at Object.invokeGuardedCallbackDev (webpack-internal:///./node_modules/react-dom/cjs/react-dom.development.js:3994:16)\n    at invokeGuardedCallback (webpack-internal:///./node_modules/react-dom/cjs/react-dom.development.js:4056:31)\n    at flushPassiveEffectsImpl (webpack-internal:///./node_modules/react-dom/cjs/react-dom.development.js:23569:9)\n    at unstable_runWithPriority (webpack-internal:///./node_modules/scheduler/cjs/scheduler.development.js:468:12)\n    at runWithPriority$1 (webpack-internal:///./node_modules/react-dom/cjs/react-dom.development.js:11276:10)\n    at flushPassiveEffects (webpack-internal:///./node_modules/react-dom/cjs/react-dom.development.js:23442:14)\n    at eval (webpack-internal:///./node_modules/react-dom/cjs/react-dom.development.js:23319:11)\n    at workLoop (webpack-internal:///./node_modules/scheduler/cjs/scheduler.development.js:417:34)\n    at flushWork (webpack-internal:///./node_modules/scheduler/cjs/scheduler.development.js:390:14)\n    at MessagePort.performWorkUntilDeadline (webpack-internal:///./node_modules/scheduler/cjs/scheduler.development.js:157:27)",
      "level": "error",
      "numEvents": 3,
      "numUsers": 3
    },
    {
      "id": "aa430a38-c67c-4b2f-bfdb-4f76296075ad",
      "projectId": "6d5fff43-d691-445d-a41a-7d0c639080e6",
      "name": "Error",
      "message": "Permission denied to access property t",
      "stack": "Permission denied to access property \"x\"\n    at eval (webpack-internal:///./pages/index.tsx:37:7)\n    at invokePassiveEffectCreate (webpack-internal:///./node_modules/react-dom/cjs/react-dom.development.js:23482:20)\n    at HTMLUnknownElement.callCallback (webpack-internal:///./node_modules/react-dom/cjs/react-dom.development.js:3945:14)\n    at HTMLUnknownElement.sentryWrapped (webpack-internal:///./node_modules/@sentry/browser/esm/helpers.js:81:23)\n    at Object.invokeGuardedCallbackDev (webpack-internal:///./node_modules/react-dom/cjs/react-dom.development.js:3994:16)\n    at invokeGuardedCallback (webpack-internal:///./node_modules/react-dom/cjs/react-dom.development.js:4056:31)\n    at flushPassiveEffectsImpl (webpack-internal:///./node_modules/react-dom/cjs/react-dom.development.js:23569:9)\n    at unstable_runWithPriority (webpack-internal:///./node_modules/scheduler/cjs/scheduler.development.js:468:12)\n    at runWithPriority$1 (webpack-internal:///./node_modules/react-dom/cjs/react-dom.development.js:11276:10)\n    at flushPassiveEffects (webpack-internal:///./node_modules/react-dom/cjs/react-dom.development.js:23442:14)\n    at eval (webpack-internal:///./node_modules/react-dom/cjs/react-dom.development.js:23319:11)\n    at workLoop (webpack-internal:///./node_modules/scheduler/cjs/scheduler.development.js:417:34)\n    at flushWork (webpack-internal:///./node_modules/scheduler/cjs/scheduler.development.js:390:14)\n    at MessagePort.performWorkUntilDeadline (webpack-internal:///./node_modules/scheduler/cjs/scheduler.development.js:157:27)",
      "level": "error",
      "numEvents": 7,
      "numUsers": 7
    },
    {
      "id": "46ce9925-03ce-49cb-9700-6993e9d0b48f",
      "projectId": "6d5fff43-d691-445d-a41a-7d0c639080e6",
      "name": "SyntaxError",
      "message": "test for equality (==) mistyped as assignment (=)?",
      "stack": "test for equality (==) mistyped as assignment (=)?\n    at eval (webpack-internal:///./pages/index.tsx:37:7)\n    at invokePassiveEffectCreate (webpack-internal:///./node_modules/react-dom/cjs/react-dom.development.js:23482:20)\n    at HTMLUnknownElement.callCallback (webpack-internal:///./node_modules/react-dom/cjs/react-dom.development.js:3945:14)\n    at HTMLUnknownElement.sentryWrapped (webpack-internal:///./node_modules/@sentry/browser/esm/helpers.js:81:23)\n    at Object.invokeGuardedCallbackDev (webpack-internal:///./node_modules/react-dom/cjs/react-dom.development.js:3994:16)\n    at invokeGuardedCallback (webpack-internal:///./node_modules/react-dom/cjs/react-dom.development.js:4056:31)\n    at flushPassiveEffectsImpl (webpack-internal:///./node_modules/react-dom/cjs/react-dom.development.js:23569:9)\n    at unstable_runWithPriority (webpack-internal:///./node_modules/scheduler/cjs/scheduler.development.js:468:12)\n    at runWithPriority$1 (webpack-internal:///./node_modules/react-dom/cjs/react-dom.development.js:11276:10)\n    at flushPassiveEffects (webpack-internal:///./node_modules/react-dom/cjs/react-dom.development.js:23442:14)\n    at eval (webpack-internal:///./node_modules/react-dom/cjs/react-dom.development.js:23319:11)\n    at workLoop (webpack-internal:///./node_modules/scheduler/cjs/scheduler.development.js:417:34)\n    at flushWork (webpack-internal:///./node_modules/scheduler/cjs/scheduler.development.js:390:14)\n    at MessagePort.performWorkUntilDeadline (webpack-internal:///./node_modules/scheduler/cjs/scheduler.development.js:157:27)",
      "level": "error",
      "numEvents": 9,
      "numUsers": 6
    },
    {
      "id": "2e39a8a0-e34f-4f8b-a027-711e29e0c016",
      "projectId": "6d5fff43-d691-445d-a41a-7d0c639080e6",
      "name": "TypeError",
      "message": "I is not a function",
      "stack": "\"x\" is not a function\n    at eval (webpack-internal:///./pages/index.tsx:37:7)\n    at invokePassiveEffectCreate (webpack-internal:///./node_modules/react-dom/cjs/react-dom.development.js:23482:20)\n    at HTMLUnknownElement.callCallback (webpack-internal:///./node_modules/react-dom/cjs/react-dom.development.js:3945:14)\n    at HTMLUnknownElement.sentryWrapped (webpack-internal:///./node_modules/@sentry/browser/esm/helpers.js:81:23)\n    at Object.invokeGuardedCallbackDev (webpack-internal:///./node_modules/react-dom/cjs/react-dom.development.js:3994:16)\n    at invokeGuardedCallback (webpack-internal:///./node_modules/react-dom/cjs/react-dom.development.js:4056:31)\n    at flushPassiveEffectsImpl (webpack-internal:///./node_modules/react-dom/cjs/react-dom.development.js:23569:9)\n    at unstable_runWithPriority (webpack-internal:///./node_modules/scheduler/cjs/scheduler.development.js:468:12)\n    at runWithPriority$1 (webpack-internal:///./node_modules/react-dom/cjs/react-dom.development.js:11276:10)\n    at flushPassiveEffects (webpack-internal:///./node_modules/react-dom/cjs/react-dom.development.js:23442:14)\n    at eval (webpack-internal:///./node_modules/react-dom/cjs/react-dom.development.js:23319:11)\n    at workLoop (webpack-internal:///./node_modules/scheduler/cjs/scheduler.development.js:417:34)\n    at flushWork (webpack-internal:///./node_modules/scheduler/cjs/scheduler.development.js:390:14)\n    at MessagePort.performWorkUntilDeadline (webpack-internal:///./node_modules/scheduler/cjs/scheduler.development.js:157:27)",
      "level": "error",
      "numEvents": 18,
      "numUsers": 16
    }
  ],
  "meta": {
    "currentPage": 1,
    "limit": 10,
    "totalItems": 14,
    "totalPages": 2,
    "hasPreviousPage": false,
    "hasNextPage": true
  }
}
